lr5/simulation/qsim/lr4dop.msim.vcd
$comment
	File created using the following command:
		vcd file lr4dop.msim.vcd -direction
$end
$date
	Fri Apr 15 20:23:05 2022
$end
$version
	ModelSim Version 10.1d
$end
$timescale
	1ps
$end
$scope module lr4dop_vlg_vec_tst $end
$var reg 1 ! CLOCK_50 $end
$var reg 2 " SW [1:0] $end
$var wire 1 # HEX0 [6] $end
$var wire 1 $ HEX0 [5] $end
$var wire 1 % HEX0 [4] $end
$var wire 1 & HEX0 [3] $end
$var wire 1 ' HEX0 [2] $end
$var wire 1 ( HEX0 [1] $end
$var wire 1 ) HEX0 [0] $end
$var wire 1 * HEX1 [6] $end
$var wire 1 + HEX1 [5] $end
$var wire 1 , HEX1 [4] $end
$var wire 1 - HEX1 [3] $end
$var wire 1 . HEX1 [2] $end
$var wire 1 / HEX1 [1] $end
$var wire 1 0 HEX1 [0] $end
$var wire 1 1 HEX2 [6] $end
$var wire 1 2 HEX2 [5] $end
$var wire 1 3 HEX2 [4] $end
$var wire 1 4 HEX2 [3] $end
$var wire 1 5 HEX2 [2] $end
$var wire 1 6 HEX2 [1] $end
$var wire 1 7 HEX2 [0] $end
$var wire 1 8 HEX3 [6] $end
$var wire 1 9 HEX3 [5] $end
$var wire 1 : HEX3 [4] $end
$var wire 1 ; HEX3 [3] $end
$var wire 1 < HEX3 [2] $end
$var wire 1 = HEX3 [1] $end
$var wire 1 > HEX3 [0] $end
$var wire 1 ? sampler $end
$scope module i1 $end
$var wire 1 @ gnd $end
$var wire 1 A vcc $end
$var wire 1 B unknown $end
$var tri1 1 C devclrn $end
$var tri1 1 D devpor $end
$var tri1 1 E devoe $end
$var wire 1 F COUNTER[1]~2_combout $end
$var wire 1 G CLOCK_50~combout $end
$var wire 1 H CLOCK_50~clkctrl_outclk $end
$var wire 1 I COUNTER[0]~6_combout $end
$var wire 1 J COUNTER[1]~3 $end
$var wire 1 K COUNTER[2]~4_combout $end
$var wire 1 L COUNTER[2]~clkctrl_outclk $end
$var wire 1 M STR[0]~3_combout $end
$var wire 1 N HEX0~14_combout $end
$var wire 1 O STR~0_combout $end
$var wire 1 P STR~1_combout $end
$var wire 1 Q Mux6~0_combout $end
$var wire 1 R HEX0[0]~0_combout $end
$var wire 1 S CNTR~2_combout $end
$var wire 1 T CNTR~1_combout $end
$var wire 1 U CNTR~0_combout $end
$var wire 1 V Add3~0_combout $end
$var wire 1 W HEX0~7_combout $end
$var wire 1 X HEX0[0]~reg0_regout $end
$var wire 1 Y Add2~0_combout $end
$var wire 1 Z STRT~1_combout $end
$var wire 1 [ STRT~2_combout $end
$var wire 1 \ STRT~0_combout $end
$var wire 1 ] Mux12~0_combout $end
$var wire 1 ^ Mux5~0_combout $end
$var wire 1 _ HEX0[1]~1_combout $end
$var wire 1 ` HEX0~8_combout $end
$var wire 1 a HEX0[1]~reg0_regout $end
$var wire 1 b HEX0[2]~2_combout $end
$var wire 1 c HEX0[2]~reg0feeder_combout $end
$var wire 1 d Mux4~0_combout $end
$var wire 1 e Mux11~0_combout $end
$var wire 1 f HEX0~9_combout $end
$var wire 1 g HEX0[2]~reg0_regout $end
$var wire 1 h Mux10~0_combout $end
$var wire 1 i Mux3~0_combout $end
$var wire 1 j HEX0[3]~3_combout $end
$var wire 1 k HEX0~10_combout $end
$var wire 1 l HEX0[3]~reg0_regout $end
$var wire 1 m Mux9~0_combout $end
$var wire 1 n Mux2~0_combout $end
$var wire 1 o HEX0[4]~4_combout $end
$var wire 1 p HEX0~11_combout $end
$var wire 1 q HEX0[4]~reg0_regout $end
$var wire 1 r Mux8~0_combout $end
$var wire 1 s Mux1~0_combout $end
$var wire 1 t HEX0[5]~5_combout $end
$var wire 1 u HEX0~12_combout $end
$var wire 1 v HEX0[5]~reg0_regout $end
$var wire 1 w Mux7~0_combout $end
$var wire 1 x Mux0~0_combout $end
$var wire 1 y HEX0[6]~6_combout $end
$var wire 1 z HEX0~13_combout $end
$var wire 1 { HEX0[6]~reg0_regout $end
$var wire 1 | HEX1[0]~reg0feeder_combout $end
$var wire 1 } Mux13~0_combout $end
$var wire 1 ~ HEX2[2]~7_combout $end
$var wire 1 !! HEX1[0]~reg0_regout $end
$var wire 1 "! HEX1[1]~reg0feeder_combout $end
$var wire 1 #! HEX1[1]~reg0_regout $end
$var wire 1 $! HEX1[2]~reg0feeder_combout $end
$var wire 1 %! HEX1[2]~reg0_regout $end
$var wire 1 &! HEX1[3]~reg0feeder_combout $end
$var wire 1 '! Mux10~0_wirecell_combout $end
$var wire 1 (! HEX1[3]~reg0_regout $end
$var wire 1 )! HEX1[4]~reg0feeder_combout $end
$var wire 1 *! Mux9~0_wirecell_combout $end
$var wire 1 +! HEX1[4]~reg0_regout $end
$var wire 1 ,! HEX1[5]~reg0feeder_combout $end
$var wire 1 -! Mux8~0_wirecell_combout $end
$var wire 1 .! HEX1[5]~reg0_regout $end
$var wire 1 /! HEX1[6]~reg0feeder_combout $end
$var wire 1 0! Mux7~0_wirecell_combout $end
$var wire 1 1! HEX1[6]~reg0_regout $end
$var wire 1 2! HEX2[0]~0_combout $end
$var wire 1 3! HEX2[0]~reg0_regout $end
$var wire 1 4! HEX2[1]~1_combout $end
$var wire 1 5! HEX2[1]~reg0_regout $end
$var wire 1 6! HEX2[2]~2_combout $end
$var wire 1 7! HEX2[2]~reg0_regout $end
$var wire 1 8! HEX2[3]~3_combout $end
$var wire 1 9! HEX2[3]~reg0_regout $end
$var wire 1 :! HEX2[4]~4_combout $end
$var wire 1 ;! HEX2[4]~reg0_regout $end
$var wire 1 <! HEX2[5]~5_combout $end
$var wire 1 =! HEX2[5]~reg0_regout $end
$var wire 1 >! HEX2[6]~6_combout $end
$var wire 1 ?! HEX2[6]~reg0_regout $end
$var wire 1 @! HEX3[0]~0_combout $end
$var wire 1 A! HEX3[0]~reg0_regout $end
$var wire 1 B! HEX3[1]~1_combout $end
$var wire 1 C! HEX3[1]~reg0_regout $end
$var wire 1 D! HEX3[2]~2_combout $end
$var wire 1 E! HEX3[2]~reg0_regout $end
$var wire 1 F! HEX3[3]~3_combout $end
$var wire 1 G! HEX3[3]~reg0_regout $end
$var wire 1 H! HEX3[4]~4_combout $end
$var wire 1 I! HEX3[4]~reg0_regout $end
$var wire 1 J! HEX3[5]~5_combout $end
$var wire 1 K! HEX3[5]~reg0_regout $end
$var wire 1 L! HEX3[6]~6_combout $end
$var wire 1 M! HEX3[6]~reg0_regout $end
$var wire 1 N! STR [2] $end
$var wire 1 O! STR [1] $end
$var wire 1 P! STR [0] $end
$var wire 1 Q! COUNTER [31] $end
$var wire 1 R! COUNTER [30] $end
$var wire 1 S! COUNTER [29] $end
$var wire 1 T! COUNTER [28] $end
$var wire 1 U! COUNTER [27] $end
$var wire 1 V! COUNTER [26] $end
$var wire 1 W! COUNTER [25] $end
$var wire 1 X! COUNTER [24] $end
$var wire 1 Y! COUNTER [23] $end
$var wire 1 Z! COUNTER [22] $end
$var wire 1 [! COUNTER [21] $end
$var wire 1 \! COUNTER [20] $end
$var wire 1 ]! COUNTER [19] $end
$var wire 1 ^! COUNTER [18] $end
$var wire 1 _! COUNTER [17] $end
$var wire 1 `! COUNTER [16] $end
$var wire 1 a! COUNTER [15] $end
$var wire 1 b! COUNTER [14] $end
$var wire 1 c! COUNTER [13] $end
$var wire 1 d! COUNTER [12] $end
$var wire 1 e! COUNTER [11] $end
$var wire 1 f! COUNTER [10] $end
$var wire 1 g! COUNTER [9] $end
$var wire 1 h! COUNTER [8] $end
$var wire 1 i! COUNTER [7] $end
$var wire 1 j! COUNTER [6] $end
$var wire 1 k! COUNTER [5] $end
$var wire 1 l! COUNTER [4] $end
$var wire 1 m! COUNTER [3] $end
$var wire 1 n! COUNTER [2] $end
$var wire 1 o! COUNTER [1] $end
$var wire 1 p! COUNTER [0] $end
$var wire 1 q! SW~combout [1] $end
$var wire 1 r! SW~combout [0] $end
$var wire 1 s! STRT [3] $end
$var wire 1 t! STRT [2] $end
$var wire 1 u! STRT [1] $end
$var wire 1 v! STRT [0] $end
$var wire 1 w! CNTR [3] $end
$var wire 1 x! CNTR [2] $end
$var wire 1 y! CNTR [1] $end
$var wire 1 z! CNTR [0] $end
$upscope $end
$upscope $end
$enddefinitions $end
#0
$dumpvars
0!
b0 "
0)
0(
0'
0&
0%
0$
0#
00
0/
0.
0-
0,
0+
0*
07
06
05
04
03
02
01
0>
0=
0<
0;
0:
09
08
x?
0@
1A
xB
1C
1D
1E
0F
0G
0H
1I
0J
0K
0L
1M
0N
0O
0P
0Q
0R
0S
0T
1U
0V
0W
0X
0Y
0Z
0[
1\
1]
0^
0_
0`
0a
1b
1c
1d
1e
1f
0g
0h
1i
1j
1k
0l
0m
1n
1o
1p
0q
0r
1s
1t
1u
0v
0w
1x
1y
1z
0{
0|
0}
0~
0!!
0"!
0#!
0$!
0%!
0&!
1'!
0(!
0)!
1*!
0+!
0,!
1-!
0.!
0/!
10!
01!
02!
03!
04!
05!
06!
07!
08!
09!
0:!
0;!
0<!
0=!
0>!
0?!
0@!
0A!
0B!
0C!
0D!
0E!
0F!
0G!
0H!
0I!
0J!
0K!
0L!
0M!
0P!
0O!
0N!
0p!
0o!
0n!
zm!
zl!
zk!
zj!
zi!
zh!
zg!
zf!
ze!
zd!
zc!
zb!
za!
z`!
z_!
z^!
z]!
z\!
z[!
zZ!
zY!
zX!
zW!
zV!
zU!
zT!
zS!
zR!
zQ!
0r!
0q!
0v!
0u!
0t!
0s!
0z!
0y!
0x!
0w!
$end
#5000
1!
1G
1H
0?
1p!
0I
1F
#10000
0!
0G
0H
1?
#15000
1!
1G
1H
0?
0p!
1o!
1I
#20000
0!
0G
0H
1?
#25000
1!
1G
1H
0?
1p!
0I
1J
0F
1K
#30000
0!
0G
0H
1?
#35000
1!
1G
1H
0?
1n!
0p!
0o!
1L
0K
1I
0J
1K
1{
1v
1q
1l
1g
1P!
1L!
1/!
1J!
1,!
1H!
1)!
1F!
1&!
1D!
1$!
0n
0i
1^
1Q
1P
0M
1#
1$
1%
1&
1'
0o
0j
1_
1R
#40000
0!
0G
0H
1?
#45000
1!
1G
1H
0?
1p!
0I
1F
#50000
0!
0G
0H
1?
#55000
1!
1G
1H
0?
0p!
1o!
1I
#60000
0!
0G
0H
1?
#65000
1!
1G
1H
0?
1p!
0I
1J
0F
0K
#70000
0!
0G
0H
1?
#75000
1!
1G
1H
0?
0n!
0p!
0o!
0L
1K
1I
0J
0K
#80000
0!
0G
0H
1?
#85000
1!
1G
1H
0?
1p!
0I
1F
#90000
0!
0G
0H
1?
#95000
1!
1G
1H
0?
0p!
1o!
1I
#100000
0!
0G
0H
1?
#105000
1!
1G
1H
0?
1p!
0I
1J
0F
1K
#110000
0!
0G
0H
1?
#115000
1!
1G
1H
0?
1n!
0p!
0o!
1L
0K
1I
0J
1K
11!
1.!
1+!
1(!
1%!
0q
0l
1a
1X
1O!
0P!
1>!
1<!
0H!
1:!
0F!
18!
16!
0)!
0&!
1B!
1"!
1@!
1|
0x
1n
0^
0Q
1M
1*
1+
1,
1-
1.
0%
0&
1(
1)
0y
1o
0_
0R
#120000
0!
0G
0H
1?
#125000
1!
1G
1H
0?
1p!
0I
1F
#130000
0!
0G
0H
1?
#135000
1!
1G
1H
0?
0p!
1o!
1I
#140000
0!
0G
0H
1?
#145000
1!
1G
1H
0?
1p!
0I
1J
0F
0K
#150000
0!
0G
0H
1?
#155000
1!
1G
1H
0?
0n!
0p!
0o!
0L
1K
1I
0J
0K
#160000
0!
0G
0H
1?
#165000
1!
1G
1H
0?
1p!
0I
1F
#170000
0!
0G
0H
1?
#175000
1!
1G
1H
0?
0p!
1o!
1I
#180000
0!
0G
0H
1?
#185000
1!
1G
1H
0?
1p!
0I
1J
0F
1K
#190000
0!
0G
0H
1?
#195000
1!
1G
1H
0?
1n!
0p!
0o!
1L
0K
1I
0J
1K
1?!
1=!
1;!
19!
17!
0+!
0(!
1#!
1!!
0{
1q
0a
0X
1P!
1H!
0:!
08!
0B!
14!
0@!
12!
0L!
0/!
1)!
0"!
0|
1x
0s
0n
0d
0P
1O
0M
11
12
13
14
15
0,
0-
1/
10
0#
1%
0(
0)
1y
0t
0o
0f
#200000
0!
0G
0H
1?
#205000
1!
1G
1H
0?
1p!
0I
1F
#210000
0!
0G
0H
1?
#215000
1!
1G
1H
0?
0p!
1o!
1I
#220000
0!
0G
0H
1?
#225000
1!
1G
1H
0?
1p!
0I
1J
0F
0K
#230000
0!
0G
0H
1?
#235000
1!
1G
1H
0?
0n!
0p!
0o!
0L
1K
1I
0J
0K
#240000
0!
0G
0H
1?
#245000
1!
1G
1H
0?
1p!
0I
1F
#250000
0!
0G
0H
1?
#255000
1!
1G
1H
0?
0p!
1o!
1I
#260000
0!
0G
0H
1?
#265000
1!
1G
1H
0?
1p!
0I
1J
0F
1K
#270000
0!
0G
0H
1?
#275000
1!
1G
1H
0?
1n!
0p!
0o!
1L
0K
1I
0J
1K
1M!
1K!
1I!
1G!
1E!
0;!
09!
15!
13!
01!
1+!
0#!
0!!
1{
0v
0q
0g
0O!
1N!
0P!
1L!
0>!
0H!
1:!
04!
02!
1/!
0J!
0,!
0)!
0D!
0$!
1s
1n
1^
1Q
1M
18
19
1:
1;
1<
03
04
16
17
0*
1,
0/
00
1#
0$
0%
0'
1t
1o
1_
1R
#280000
0!
0G
0H
1?
#285000
1!
1G
1H
0?
1p!
0I
1F
#290000
0!
0G
0H
1?
#295000
1!
1G
1H
0?
0p!
1o!
1I
#300000
0!
0G
0H
1?
#305000
1!
1G
1H
0?
1p!
0I
1J
0F
0K
#310000
0!
0G
0H
1?
#315000
1!
1G
1H
0?
0n!
0p!
0o!
0L
1K
1I
0J
0K
#320000
0!
0G
0H
1?
#325000
1!
1G
1H
0?
1p!
0I
1F
#330000
0!
0G
0H
1?
#335000
1!
1G
1H
0?
0p!
1o!
1I
#340000
0!
0G
0H
1?
#345000
1!
1G
1H
0?
1p!
0I
1J
0F
1K
#350000
0!
0G
0H
1?
#355000
1!
1G
1H
0?
1n!
0p!
0o!
1L
0K
1I
0J
1K
0I!
0G!
1C!
1A!
0?!
1;!
05!
03!
11!
0.!
0+!
0%!
1v
1q
1a
1X
1P!
1>!
1J!
0<!
1H!
0:!
06!
1,!
1)!
1B!
1"!
1@!
1|
1i
1d
0O
0M
0:
0;
1=
1>
01
13
06
07
1*
0+
0,
0.
1$
1%
1(
1)
1j
1f
#360000
0!
0G
0H
1?
#365000
1!
1G
1H
0?
1p!
0I
1F
#370000
0!
0G
0H
1?
#375000
1!
1G
1H
0?
0p!
1o!
1I
#380000
0!
0G
0H
1?
#385000
1!
1G
1H
0?
1p!
0I
1J
0F
0K
#390000
0!
0G
0H
1?
#395000
1!
1G
1H
0?
0n!
0p!
0o!
0L
1K
1I
0J
0K
#400000
0!
0G
0H
1?
#405000
1!
1G
1H
0?
1p!
0I
1F
#410000
0!
0G
0H
1?
#415000
1!
1G
1H
0?
0p!
1o!
1I
#420000
0!
0G
0H
1?
#425000
1!
1G
1H
0?
1p!
0I
1J
0F
1K
#430000
0!
0G
0H
1?
#435000
1!
1G
1H
0?
1n!
0p!
0o!
1L
0K
1I
0J
1K
0M!
1I!
0C!
0A!
1?!
0=!
0;!
07!
1.!
1+!
1#!
1!!
1l
1g
0N!
0P!
1<!
1:!
14!
12!
1F!
1&!
1D!
1$!
0^
0Q
1M
08
1:
0=
0>
11
02
03
05
1+
1,
1/
10
1&
1'
0_
0R
#440000
0!
0G
0H
1?
#445000
1!
1G
1H
0?
1p!
0I
1F
#450000
0!
0G
0H
1?
#455000
1!
1G
1H
0?
0p!
1o!
1I
#460000
0!
0G
0H
1?
#465000
1!
1G
1H
0?
1p!
0I
1J
0F
0K
#470000
0!
0G
0H
1?
#475000
1!
1G
1H
0?
0n!
0p!
0o!
0L
1K
1I
0J
0K
#480000
0!
0G
0H
1?
#485000
1!
1G
1H
0?
1p!
0I
1F
#490000
0!
0G
0H
1?
#495000
1!
1G
1H
0?
0p!
1o!
1I
#500000
0!
0G
0H
1?
#505000
1!
1G
1H
0?
1p!
0I
1J
0F
1K
#510000
0!
0G
0H
1?
#515000
1!
1G
1H
0?
1n!
0p!
0o!
1L
0K
1I
0J
1K
1M!
0K!
0I!
0E!
1=!
1;!
15!
13!
1(!
1%!
0a
0X
1P!
18!
16!
0B!
0"!
0@!
0|
0n
0i
1^
1Q
1P
0M
18
09
0:
0<
12
13
16
17
1-
1.
0(
0)
0o
0j
1_
1R
#520000
0!
0G
0H
1?
#525000
1!
1G
1H
0?
1p!
0I
1F
#530000
0!
0G
0H
1?
#535000
1!
1G
1H
0?
0p!
1o!
1I
#540000
0!
0G
0H
1?
#545000
1!
1G
1H
0?
1p!
0I
1J
0F
0K
#550000
0!
0G
0H
1?
#555000
1!
1G
1H
0?
0n!
0p!
0o!
0L
1K
1I
0J
0K
#560000
0!
0G
0H
1?
#565000
1!
1G
1H
0?
1p!
0I
1F
#570000
0!
0G
0H
1?
#575000
1!
1G
1H
0?
0p!
1o!
1I
#580000
0!
0G
0H
1?
#585000
1!
1G
1H
0?
1p!
0I
1J
0F
1K
#590000
0!
0G
0H
1?
#595000
1!
1G
1H
0?
1n!
0p!
0o!
1L
0K
1I
0J
1K
1K!
1I!
1C!
1A!
19!
17!
0#!
0!!
0q
0l
1a
1X
1O!
0P!
1B!
04!
1@!
02!
0H!
0)!
0F!
0&!
1"!
1|
0x
1n
0^
0Q
1M
19
1:
1=
1>
14
15
0/
00
0%
0&
1(
1)
0y
1o
0_
0R
#600000
0!
0G
0H
1?
#605000
1!
1G
1H
0?
1p!
0I
1F
#610000
0!
0G
0H
1?
#615000
1!
1G
1H
0?
0p!
1o!
1I
#620000
0!
0G
0H
1?
#625000
1!
1G
1H
0?
1p!
0I
1J
0F
0K
#630000
0!
0G
0H
1?
#635000
1!
1G
1H
0?
0n!
0p!
0o!
0L
1K
1I
0J
0K
#640000
0!
0G
0H
1?
#645000
1!
1G
1H
0?
1p!
0I
1F
#650000
0!
0G
0H
1?
#655000
1!
1G
1H
0?
0p!
1o!
1I
#660000
0!
0G
0H
1?
#665000
1!
1G
1H
0?
1p!
0I
1J
0F
1K
#670000
0!
0G
0H
1?
#675000
1!
1G
1H
0?
1n!
0p!
0o!
1L
0K
1I
0J
1K
1G!
1E!
05!
03!
0+!
0(!
1#!
1!!
0{
1q
0a
0X
1P!
1H!
0:!
08!
0B!
14!
0@!
12!
0L!
0/!
1)!
0"!
0|
1x
0s
0n
0d
0P
1O
0M
1;
1<
06
07
0,
0-
1/
10
0#
1%
0(
0)
1y
0t
0o
0f
#680000
0!
0G
0H
1?
#685000
1!
1G
1H
0?
1p!
0I
1F
#690000
0!
0G
0H
1?
#695000
1!
1G
1H
0?
0p!
1o!
1I
#700000
0!
0G
0H
1?
#705000
1!
1G
1H
0?
1p!
0I
1J
0F
0K
#710000
0!
0G
0H
1?
#715000
1!
1G
1H
0?
0n!
0p!
0o!
0L
1K
1I
0J
0K
#720000
0!
0G
0H
1?
#725000
1!
1G
1H
0?
1p!
0I
1F
#730000
0!
0G
0H
1?
#735000
1!
1G
1H
0?
0p!
1o!
1I
#740000
0!
0G
0H
1?
#745000
1!
1G
1H
0?
1p!
0I
1J
0F
1K
#750000
0!
0G
0H
1?
#755000
1!
1G
1H
0?
1n!
0p!
0o!
1L
0K
1I
0J
1K
0C!
0A!
0;!
09!
15!
13!
01!
1+!
0#!
0!!
1{
0v
0q
0g
0O!
1N!
0P!
1L!
0>!
0H!
1:!
04!
02!
1/!
0J!
0,!
0)!
0D!
0$!
1s
1n
1^
1Q
1M
0=
0>
03
04
16
17
0*
1,
0/
00
1#
0$
0%
0'
1t
1o
1_
1R
#760000
0!
0G
0H
1?
#765000
1!
1G
1H
0?
1p!
0I
1F
#770000
0!
0G
0H
1?
#775000
1!
1G
1H
0?
0p!
1o!
1I
#780000
0!
0G
0H
1?
#785000
1!
1G
1H
0?
1p!
0I
1J
0F
0K
#790000
0!
0G
0H
1?
#795000
1!
1G
1H
0?
0n!
0p!
0o!
0L
1K
1I
0J
0K
#800000
0!
0G
0H
1?
#805000
1!
1G
1H
0?
1p!
0I
1F
#810000
0!
0G
0H
1?
#815000
1!
1G
1H
0?
0p!
1o!
1I
#820000
0!
0G
0H
1?
#825000
1!
1G
1H
0?
1p!
0I
1J
0F
1K
#830000
0!
0G
0H
1?
#835000
1!
1G
1H
0?
1n!
0p!
0o!
1L
0K
1I
0J
1K
0I!
0G!
1C!
1A!
0?!
1;!
05!
03!
11!
0.!
0+!
0%!
1v
1q
1a
1X
1P!
1>!
1J!
0<!
1H!
0:!
06!
1,!
1)!
1B!
1"!
1@!
1|
1i
1d
0O
0M
0:
0;
1=
1>
01
13
06
07
1*
0+
0,
0.
1$
1%
1(
1)
1j
1f
#840000
0!
0G
0H
1?
#845000
1!
1G
1H
0?
1p!
0I
1F
#850000
0!
0G
0H
1?
#855000
1!
1G
1H
0?
0p!
1o!
1I
#860000
0!
0G
0H
1?
#865000
1!
1G
1H
0?
1p!
0I
1J
0F
0K
#870000
0!
0G
0H
1?
#875000
1!
1G
1H
0?
0n!
0p!
0o!
0L
1K
1I
0J
0K
#880000
0!
0G
0H
1?
#885000
1!
1G
1H
0?
1p!
0I
1F
#890000
0!
0G
0H
1?
#895000
1!
1G
1H
0?
0p!
1o!
1I
#900000
0!
0G
0H
1?
#905000
1!
1G
1H
0?
1p!
0I
1J
0F
1K
#910000
0!
0G
0H
1?
#915000
1!
1G
1H
0?
1n!
0p!
0o!
1L
0K
1I
0J
1K
0M!
1I!
0C!
0A!
1?!
0=!
0;!
07!
1.!
1+!
1#!
1!!
1l
1g
0N!
0P!
1<!
1:!
14!
12!
1F!
1&!
1D!
1$!
0^
0Q
1M
08
1:
0=
0>
11
02
03
05
1+
1,
1/
10
1&
1'
0_
0R
#920000
0!
0G
0H
1?
#925000
1!
1G
1H
0?
1p!
0I
1F
#930000
0!
0G
0H
1?
#935000
1!
1G
1H
0?
0p!
1o!
1I
#940000
0!
0G
0H
1?
#945000
1!
1G
1H
0?
1p!
0I
1J
0F
0K
#950000
0!
0G
0H
1?
#955000
1!
1G
1H
0?
0n!
0p!
0o!
0L
1K
1I
0J
0K
#960000
0!
0G
0H
1?
#965000
1!
1G
1H
0?
1p!
0I
1F
#970000
0!
0G
0H
1?
#975000
1!
1G
1H
0?
0p!
1o!
1I
#980000
0!
0G
0H
1?
#985000
1!
1G
1H
0?
1p!
0I
1J
0F
1K
#990000
0!
0G
0H
1?
