lr6/simulation/qsim/lr6.msim.vcd
$comment
	File created using the following command:
		vcd file lr6.msim.vcd -direction
$end
$date
	Mon May 16 15:13:24 2022
$end
$version
	ModelSim Version 10.1d
$end
$timescale
	1ps
$end
$scope module lr6_vlg_vec_tst $end
$var reg 1 ! CLOCK_50 $end
$var reg 2 " SW [1:0] $end
$var wire 1 # HEX0 [6] $end
$var wire 1 $ HEX0 [5] $end
$var wire 1 % HEX0 [4] $end
$var wire 1 & HEX0 [3] $end
$var wire 1 ' HEX0 [2] $end
$var wire 1 ( HEX0 [1] $end
$var wire 1 ) HEX0 [0] $end
$var wire 1 * HEX1 [6] $end
$var wire 1 + HEX1 [5] $end
$var wire 1 , HEX1 [4] $end
$var wire 1 - HEX1 [3] $end
$var wire 1 . HEX1 [2] $end
$var wire 1 / HEX1 [1] $end
$var wire 1 0 HEX1 [0] $end
$var wire 1 1 HEX2 [6] $end
$var wire 1 2 HEX2 [5] $end
$var wire 1 3 HEX2 [4] $end
$var wire 1 4 HEX2 [3] $end
$var wire 1 5 HEX2 [2] $end
$var wire 1 6 HEX2 [1] $end
$var wire 1 7 HEX2 [0] $end
$var wire 1 8 HEX3 [6] $end
$var wire 1 9 HEX3 [5] $end
$var wire 1 : HEX3 [4] $end
$var wire 1 ; HEX3 [3] $end
$var wire 1 < HEX3 [2] $end
$var wire 1 = HEX3 [1] $end
$var wire 1 > HEX3 [0] $end
$var wire 1 ? LEDG [3] $end
$var wire 1 @ LEDG [2] $end
$var wire 1 A LEDG [1] $end
$var wire 1 B LEDG [0] $end
$var wire 1 C LEDR [1] $end
$var wire 1 D LEDR [0] $end
$var wire 1 E sampler $end
$scope module i1 $end
$var wire 1 F gnd $end
$var wire 1 G vcc $end
$var wire 1 H unknown $end
$var tri1 1 I devclrn $end
$var tri1 1 J devpor $end
$var tri1 1 K devoe $end
$var wire 1 L counter[1]~2_combout $end
$var wire 1 M counter[1]~3 $end
$var wire 1 N counter[2]~4_combout $end
$var wire 1 O counter[0]~6_combout $end
$var wire 1 P counter[2]~clkctrl_outclk $end
$var wire 1 Q currentState~2_combout $end
$var wire 1 R currentState~3_combout $end
$var wire 1 S currentState~0_combout $end
$var wire 1 T currentState~1_combout $end
$var wire 1 U currentState~4_combout $end
$var wire 1 V currentState~5_combout $end
$var wire 1 W currentState~7_combout $end
$var wire 1 X currentState~6_combout $end
$var wire 1 Y currentState~8_combout $end
$var wire 1 Z Equal0~0_combout $end
$var wire 1 [ CLOCK_50~combout $end
$var wire 1 \ CLOCK_50~clkctrl_outclk $end
$var wire 1 ] HEX0[0]~1_combout $end
$var wire 1 ^ HEX0[0]~0_combout $end
$var wire 1 _ HEX0[0]~reg0_regout $end
$var wire 1 ` Mux12~0_combout $end
$var wire 1 a HEX0[1]~reg0_regout $end
$var wire 1 b HEX0[4]~reg0feeder_combout $end
$var wire 1 c HEX0[4]~reg0_regout $end
$var wire 1 d Mux6~0_combout $end
$var wire 1 e HEX3[0]~reg0_regout $end
$var wire 1 f Mux5~0_combout $end
$var wire 1 g HEX3[1]~reg0_regout $end
$var wire 1 h Mux4~0_combout $end
$var wire 1 i HEX3[2]~reg0_regout $end
$var wire 1 j Mux3~0_combout $end
$var wire 1 k HEX3[3]~reg0_regout $end
$var wire 1 l Mux2~0_combout $end
$var wire 1 m HEX3[4]~reg0_regout $end
$var wire 1 n Mux1~0_combout $end
$var wire 1 o HEX3[5]~reg0_regout $end
$var wire 1 p Mux0~0_combout $end
$var wire 1 q HEX3[6]~reg0_regout $end
$var wire 1 r currentState [3] $end
$var wire 1 s currentState [2] $end
$var wire 1 t currentState [1] $end
$var wire 1 u currentState [0] $end
$var wire 1 v SW~combout [1] $end
$var wire 1 w SW~combout [0] $end
$var wire 1 x counter [24] $end
$var wire 1 y counter [23] $end
$var wire 1 z counter [22] $end
$var wire 1 { counter [21] $end
$var wire 1 | counter [20] $end
$var wire 1 } counter [19] $end
$var wire 1 ~ counter [18] $end
$var wire 1 !! counter [17] $end
$var wire 1 "! counter [16] $end
$var wire 1 #! counter [15] $end
$var wire 1 $! counter [14] $end
$var wire 1 %! counter [13] $end
$var wire 1 &! counter [12] $end
$var wire 1 '! counter [11] $end
$var wire 1 (! counter [10] $end
$var wire 1 )! counter [9] $end
$var wire 1 *! counter [8] $end
$var wire 1 +! counter [7] $end
$var wire 1 ,! counter [6] $end
$var wire 1 -! counter [5] $end
$var wire 1 .! counter [4] $end
$var wire 1 /! counter [3] $end
$var wire 1 0! counter [2] $end
$var wire 1 1! counter [1] $end
$var wire 1 2! counter [0] $end
$upscope $end
$upscope $end
$enddefinitions $end
#0
$dumpvars
0!
b0 "
0)
0(
0'
0&
0%
0$
0#
10
0/
0.
0-
0,
0+
0*
17
06
05
04
03
02
01
0>
0=
0<
0;
0:
09
08
0B
0A
0@
0?
0D
0C
xE
0F
1G
xH
1I
1J
1K
0L
0M
0N
1O
0P
0Q
0R
1S
0T
0U
0V
0W
0X
0Y
0Z
0[
0\
1]
1^
0_
1`
0a
0b
0c
1d
0e
0f
0g
0h
0i
0j
0k
0l
0m
0n
0o
0p
0q
0u
0t
0s
0r
0w
0v
02!
01!
00!
z/!
z.!
z-!
z,!
z+!
z*!
z)!
z(!
z'!
z&!
z%!
z$!
z#!
z"!
z!!
z~
z}
z|
z{
zz
zy
zx
$end
#20000
1!
1[
1\
0E
1e
1a
1_
12!
0O
1L
1>
1#
1&
1'
1(
1)
#40000
0!
0[
0\
1E
#60000
1!
1[
1\
0E
02!
11!
1O
#70000
b1 "
1w
1E
1Q
1R
#80000
0!
0[
0\
0E
#100000
1!
1[
1\
1E
12!
0O
1M
0L
1N
#120000
0!
0[
0\
0E
#140000
1!
1[
1\
1E
02!
01!
10!
1P
1O
0M
0N
1N
1u
1p
1j
1h
1f
1X
0Q
1B
1Y
0R
#160000
0!
0[
0\
0E
#180000
1!
1[
1\
1E
1q
1k
1i
1g
12!
0O
1L
18
1;
1<
1=
#200000
0!
0[
0\
0E
#220000
1!
1[
1\
1E
02!
11!
1O
#240000
0!
0[
0\
0E
#260000
1!
1[
1\
1E
12!
0O
1M
0L
0N
#280000
0!
0[
0\
0E
#300000
1!
1[
1\
1E
02!
01!
00!
0P
1O
0M
1N
0N
#320000
0!
0[
0\
0E
#340000
1!
1[
1\
1E
12!
0O
1L
#360000
0!
0[
0\
0E
#380000
1!
1[
1\
1E
02!
11!
1O
#400000
0!
0[
0\
0E
#420000
1!
1[
1\
1E
12!
0O
1M
0L
1N
#440000
0!
0[
0\
0E
#460000
1!
1[
1\
1E
02!
01!
10!
1P
1O
0M
0N
1N
1t
0u
0p
1l
0j
0h
0d
0`
1A
0B
#480000
0!
0[
0\
0E
#500000
1!
1[
1\
1E
0q
1m
0k
0i
0e
0a
12!
0O
1L
08
1:
0;
0<
0>
0#
0&
0'
0(
#520000
0!
0[
0\
0E
#540000
1!
1[
1\
1E
02!
11!
1O
#560000
0!
0[
0\
0E
#580000
1!
1[
1\
1E
12!
0O
1M
0L
0N
#600000
0!
0[
0\
0E
#610000
b0 "
0w
1E
0X
1W
1Q
1R
#620000
1!
1[
1\
0E
02!
01!
00!
0P
1O
0M
1N
0N
#640000
0!
0[
0\
1E
#660000
1!
1[
1\
0E
12!
0O
1L
#680000
0!
0[
0\
1E
#700000
1!
1[
1\
0E
02!
11!
1O
#720000
0!
0[
0\
1E
#740000
1!
1[
1\
0E
12!
0O
1M
0L
1N
#760000
0!
0[
0\
1E
#780000
1!
1[
1\
0E
02!
01!
10!
1P
1O
0M
0N
1N
1u
0l
1h
0W
1U
0Q
1B
0Y
1V
0R
#800000
0!
0[
0\
1E
#820000
1!
1[
1\
0E
0m
1i
12!
0O
1L
0:
1<
#840000
0!
0[
0\
1E
#860000
1!
1[
1\
0E
02!
11!
1O
#880000
0!
0[
0\
1E
#900000
1!
1[
1\
0E
12!
0O
1M
0L
0N
#920000
0!
0[
0\
1E
#940000
1!
1[
1\
0E
02!
01!
00!
0P
1O
0M
1N
0N
#960000
0!
0[
0\
1E
#980000
1!
1[
1\
0E
12!
0O
1L
