lr5/lab5/simulation/qsim/lab5.msim.vcd
$comment
	File created using the following command:
		vcd file lab5.msim.vcd -direction
$end
$date
	Wed Apr 13 16:58:39 2022
$end
$version
	ModelSim Version 10.1d
$end
$timescale
	1ps
$end
$scope module lab5_vlg_vec_tst $end
$var reg 1 ! CLOCK_50 $end
$var reg 2 " KEY [1:0] $end
$var reg 2 # SW [1:0] $end
$var wire 1 $ HEX0 [6] $end
$var wire 1 % HEX0 [5] $end
$var wire 1 & HEX0 [4] $end
$var wire 1 ' HEX0 [3] $end
$var wire 1 ( HEX0 [2] $end
$var wire 1 ) HEX0 [1] $end
$var wire 1 * HEX0 [0] $end
$var wire 1 + HEX1 [6] $end
$var wire 1 , HEX1 [5] $end
$var wire 1 - HEX1 [4] $end
$var wire 1 . HEX1 [3] $end
$var wire 1 / HEX1 [2] $end
$var wire 1 0 HEX1 [1] $end
$var wire 1 1 HEX1 [0] $end
$var wire 1 2 HEX2 [6] $end
$var wire 1 3 HEX2 [5] $end
$var wire 1 4 HEX2 [4] $end
$var wire 1 5 HEX2 [3] $end
$var wire 1 6 HEX2 [2] $end
$var wire 1 7 HEX2 [1] $end
$var wire 1 8 HEX2 [0] $end
$var wire 1 9 HEX3 [6] $end
$var wire 1 : HEX3 [5] $end
$var wire 1 ; HEX3 [4] $end
$var wire 1 < HEX3 [3] $end
$var wire 1 = HEX3 [2] $end
$var wire 1 > HEX3 [1] $end
$var wire 1 ? HEX3 [0] $end
$var wire 1 @ LEDG [3] $end
$var wire 1 A LEDG [2] $end
$var wire 1 B LEDG [1] $end
$var wire 1 C LEDG [0] $end
$var wire 1 D LEDR [3] $end
$var wire 1 E LEDR [2] $end
$var wire 1 F LEDR [1] $end
$var wire 1 G LEDR [0] $end
$var wire 1 H c [8] $end
$var wire 1 I c [7] $end
$var wire 1 J c [6] $end
$var wire 1 K c [5] $end
$var wire 1 L c [4] $end
$var wire 1 M c [3] $end
$var wire 1 N c [2] $end
$var wire 1 O c [1] $end
$var wire 1 P c [0] $end
$var wire 1 Q sampler $end
$scope module i1 $end
$var wire 1 R gnd $end
$var wire 1 S vcc $end
$var wire 1 T unknown $end
$var tri1 1 U devclrn $end
$var tri1 1 V devpor $end
$var tri1 1 W devoe $end
$var wire 1 X Mux14~0_combout $end
$var wire 1 Y Equal0~1_combout $end
$var wire 1 Z Add2~0_combout $end
$var wire 1 [ DESAT[2]~3_combout $end
$var wire 1 \ DESATAJA~5_combout $end
$var wire 1 ] DESATAJA~6_combout $end
$var wire 1 ^ CLOCK_50~combout $end
$var wire 1 _ CLOCK_50~clkctrl_outclk $end
$var wire 1 ` Add1~2_combout $end
$var wire 1 a EN~0_combout $end
$var wire 1 b EN~regout $end
$var wire 1 c COUNTER~0_combout $end
$var wire 1 d Add0~0_combout $end
$var wire 1 e Add0~1 $end
$var wire 1 f Add0~2_combout $end
$var wire 1 g COUNTER[1]~feeder_combout $end
$var wire 1 h Add0~3 $end
$var wire 1 i Add0~5 $end
$var wire 1 j Add0~7 $end
$var wire 1 k Add0~8_combout $end
$var wire 1 l COUNTER~1_combout $end
$var wire 1 m Add0~9 $end
$var wire 1 n Add0~10_combout $end
$var wire 1 o Add0~11 $end
$var wire 1 p Add0~12_combout $end
$var wire 1 q COUNTER[6]~feeder_combout $end
$var wire 1 r Add0~13 $end
$var wire 1 s Add0~15 $end
$var wire 1 t Add0~16_combout $end
$var wire 1 u Add0~17 $end
$var wire 1 v Add0~18_combout $end
$var wire 1 w Add0~19 $end
$var wire 1 x Add0~20_combout $end
$var wire 1 y Add0~21 $end
$var wire 1 z Add0~22_combout $end
$var wire 1 { Add0~23 $end
$var wire 1 | Add0~24_combout $end
$var wire 1 } Add0~25 $end
$var wire 1 ~ Add0~27 $end
$var wire 1 !! Add0~29 $end
$var wire 1 "! Add0~30_combout $end
$var wire 1 #! Add0~31 $end
$var wire 1 $! Add0~32_combout $end
$var wire 1 %! Add0~33 $end
$var wire 1 &! Add0~34_combout $end
$var wire 1 '! Add0~35 $end
$var wire 1 (! Add0~36_combout $end
$var wire 1 )! Add0~6_combout $end
$var wire 1 *! Add0~4_combout $end
$var wire 1 +! Equal0~0_combout $end
$var wire 1 ,! Equal0~2_combout $end
$var wire 1 -! Add0~26_combout $end
$var wire 1 .! Add0~28_combout $end
$var wire 1 /! Equal0~3_combout $end
$var wire 1 0! Equal0~4_combout $end
$var wire 1 1! Equal0~5_combout $end
$var wire 1 2! count1~feeder_combout $end
$var wire 1 3! count1~regout $end
$var wire 1 4! Add1~0_combout $end
$var wire 1 5! Equal1~0_combout $end
$var wire 1 6! Equal1~1_combout $end
$var wire 1 7! SOTAJA~0_combout $end
$var wire 1 8! Add1~1_combout $end
$var wire 1 9! SOTAJA~1_combout $end
$var wire 1 :! Mux6~0_combout $end
$var wire 1 ;! HEX0[0]~0_combout $end
$var wire 1 <! HEX0[0]~reg0_regout $end
$var wire 1 =! Mux5~0_combout $end
$var wire 1 >! HEX0[1]~reg0_regout $end
$var wire 1 ?! Mux4~0_combout $end
$var wire 1 @! HEX0[2]~reg0_regout $end
$var wire 1 A! Mux3~0_combout $end
$var wire 1 B! HEX0[3]~reg0_regout $end
$var wire 1 C! Mux2~0_combout $end
$var wire 1 D! HEX0[4]~reg0_regout $end
$var wire 1 E! Mux1~0_combout $end
$var wire 1 F! HEX0[5]~reg0_regout $end
$var wire 1 G! Mux0~0_combout $end
$var wire 1 H! HEX0[6]~1_combout $end
$var wire 1 I! HEX0[6]~reg0_regout $end
$var wire 1 J! DESATAJA~2_combout $end
$var wire 1 K! DESATAJA~4_combout $end
$var wire 1 L! Equal2~3_combout $end
$var wire 1 M! Equal2~2_combout $end
$var wire 1 N! DESATAJA~3_combout $end
$var wire 1 O! Mux13~0_combout $end
$var wire 1 P! HEX1[0]~0_combout $end
$var wire 1 Q! HEX1[0]~reg0_regout $end
$var wire 1 R! Mux12~0_combout $end
$var wire 1 S! HEX1[1]~reg0_regout $end
$var wire 1 T! Mux11~0_combout $end
$var wire 1 U! HEX1[2]~reg0_regout $end
$var wire 1 V! Mux10~0_combout $end
$var wire 1 W! HEX1[3]~reg0_regout $end
$var wire 1 X! Mux9~0_combout $end
$var wire 1 Y! HEX1[4]~reg0_regout $end
$var wire 1 Z! Mux8~0_combout $end
$var wire 1 [! HEX1[5]~reg0_regout $end
$var wire 1 \! Mux7~0_combout $end
$var wire 1 ]! HEX1[6]~1_combout $end
$var wire 1 ^! HEX1[6]~reg0_regout $end
$var wire 1 _! SEKUNDA~4_combout $end
$var wire 1 `! SEKUNDA~6_combout $end
$var wire 1 a! Add3~0_combout $end
$var wire 1 b! SEKUNDA~2_combout $end
$var wire 1 c! SEKUNDA~3_combout $end
$var wire 1 d! SEKUNDA~5_combout $end
$var wire 1 e! Mux20~0_combout $end
$var wire 1 f! HEX2[0]~0_combout $end
$var wire 1 g! HEX2[0]~reg0_regout $end
$var wire 1 h! Mux19~0_combout $end
$var wire 1 i! HEX2[1]~reg0_regout $end
$var wire 1 j! Mux18~0_combout $end
$var wire 1 k! HEX2[2]~reg0_regout $end
$var wire 1 l! Mux17~0_combout $end
$var wire 1 m! HEX2[3]~reg0_regout $end
$var wire 1 n! Mux16~0_combout $end
$var wire 1 o! HEX2[4]~reg0_regout $end
$var wire 1 p! Mux15~0_combout $end
$var wire 1 q! HEX2[5]~reg0_regout $end
$var wire 1 r! HEX2[6]~1_combout $end
$var wire 1 s! HEX2[6]~reg0_regout $end
$var wire 1 t! DESAT[0]~6_combout $end
$var wire 1 u! Equal3~2_combout $end
$var wire 1 v! DESAT[3]~2_combout $end
$var wire 1 w! Add4~0_combout $end
$var wire 1 x! DESAT[2]~5_combout $end
$var wire 1 y! DESAT[3]~4_combout $end
$var wire 1 z! Mux27~0_combout $end
$var wire 1 {! HEX3[0]~0_combout $end
$var wire 1 |! HEX3[0]~reg0_regout $end
$var wire 1 }! Mux26~0_combout $end
$var wire 1 ~! HEX3[1]~reg0_regout $end
$var wire 1 !" Mux25~0_combout $end
$var wire 1 "" HEX3[2]~reg0_regout $end
$var wire 1 #" Mux24~0_combout $end
$var wire 1 $" HEX3[3]~reg0_regout $end
$var wire 1 %" Mux23~0_combout $end
$var wire 1 &" HEX3[4]~reg0_regout $end
$var wire 1 '" Mux22~0_combout $end
$var wire 1 (" HEX3[5]~reg0_regout $end
$var wire 1 )" Mux21~0_combout $end
$var wire 1 *" HEX3[6]~1_combout $end
$var wire 1 +" HEX3[6]~reg0_regout $end
$var wire 1 ," count2~feeder_combout $end
$var wire 1 -" count2~regout $end
$var wire 1 ." count3~regout $end
$var wire 1 /" Equal3~3_combout $end
$var wire 1 0" count4~regout $end
$var wire 1 1" Add0~14_combout $end
$var wire 1 2" STARTSTOP [2] $end
$var wire 1 3" STARTSTOP [1] $end
$var wire 1 4" STARTSTOP [0] $end
$var wire 1 5" SOTAJA [3] $end
$var wire 1 6" SOTAJA [2] $end
$var wire 1 7" SOTAJA [1] $end
$var wire 1 8" SOTAJA [0] $end
$var wire 1 9" SEKUNDA [3] $end
$var wire 1 :" SEKUNDA [2] $end
$var wire 1 ;" SEKUNDA [1] $end
$var wire 1 <" SEKUNDA [0] $end
$var wire 1 =" DESATAJA [3] $end
$var wire 1 >" DESATAJA [2] $end
$var wire 1 ?" DESATAJA [1] $end
$var wire 1 @" DESATAJA [0] $end
$var wire 1 A" DESAT [3] $end
$var wire 1 B" DESAT [2] $end
$var wire 1 C" DESAT [1] $end
$var wire 1 D" DESAT [0] $end
$var wire 1 E" COUNTER [18] $end
$var wire 1 F" COUNTER [17] $end
$var wire 1 G" COUNTER [16] $end
$var wire 1 H" COUNTER [15] $end
$var wire 1 I" COUNTER [14] $end
$var wire 1 J" COUNTER [13] $end
$var wire 1 K" COUNTER [12] $end
$var wire 1 L" COUNTER [11] $end
$var wire 1 M" COUNTER [10] $end
$var wire 1 N" COUNTER [9] $end
$var wire 1 O" COUNTER [8] $end
$var wire 1 P" COUNTER [7] $end
$var wire 1 Q" COUNTER [6] $end
$var wire 1 R" COUNTER [5] $end
$var wire 1 S" COUNTER [4] $end
$var wire 1 T" COUNTER [3] $end
$var wire 1 U" COUNTER [2] $end
$var wire 1 V" COUNTER [1] $end
$var wire 1 W" COUNTER [0] $end
$var wire 1 X" KEY~combout [1] $end
$var wire 1 Y" KEY~combout [0] $end
$upscope $end
$upscope $end
$enddefinitions $end
#0
$dumpvars
0!
b0 "
b0 #
0@
0G
0F
0E
0D
0P
0O
0N
0M
0L
0K
0J
0I
0H
xQ
0R
1S
xT
1U
1V
1W
0X
0Y
0Z
0[
0\
0]
0^
0_
0`
0a
0b
0c
1d
0e
0f
0g
1h
0i
1j
0k
0l
0m
0n
1o
0p
0q
0r
1s
0t
0u
0v
1w
0x
0y
0z
1{
0|
0}
1~
0!!
0"!
1#!
0$!
0%!
0&!
1'!
0(!
0)!
0*!
0+!
1,!
0-!
0.!
1/!
00!
01!
02!
03!
04!
05!
06!
07!
08!
09!
0:!
0;!
0<!
0=!
0>!
0?!
0@!
0A!
0B!
0C!
0D!
0E!
0F!
0G!
0H!
0I!
0J!
0K!
0L!
0M!
0N!
0O!
0P!
0Q!
0R!
0S!
0T!
0U!
0V!
0W!
0X!
0Y!
0Z!
0[!
0\!
0]!
0^!
0_!
0`!
0a!
0b!
0c!
0d!
0e!
0f!
0g!
0h!
0i!
0j!
0k!
0l!
0m!
0n!
0o!
0p!
0q!
0r!
0s!
1t!
0u!
0v!
0w!
0x!
0y!
0z!
0{!
0|!
0}!
0~!
0!"
0""
0#"
0$"
0%"
0&"
0'"
0("
0)"
0*"
0+"
0,"
0-"
0."
0/"
00"
01"
04"
03"
z2"
08"
07"
06"
05"
0<"
0;"
0:"
09"
0@"
0?"
0>"
0="
0D"
0C"
0B"
0A"
0W"
0V"
0U"
0T"
0S"
0R"
0Q"
0P"
0O"
0N"
0M"
0L"
0K"
0J"
0I"
0H"
0G"
0F"
0E"
0Y"
zX"
0*
0)
0(
0'
0&
0%
1$
01
00
0/
0.
0-
0,
1+
08
07
06
05
04
03
12
0?
0>
0=
0<
0;
0:
19
0C
0B
0A
$end
#50
1!
1^
1_
0Q
#100
0!
0^
0_
1Q
#150
1!
1^
1_
0Q
#200
0!
0^
0_
1Q
#250
1!
1^
1_
0Q
#300
0!
0^
0_
1Q
#350
1!
1^
1_
0Q
#400
0!
0^
0_
1Q
#450
1!
1^
1_
0Q
#500
0!
0^
0_
1Q
#550
1!
1^
1_
0Q
#600
0!
0^
0_
1Q
#650
1!
1^
1_
0Q
#700
0!
0^
0_
1Q
#750
1!
1^
1_
0Q
#800
0!
0^
0_
1Q
#850
1!
1^
1_
0Q
#900
0!
0^
0_
1Q
#950
1!
1^
1_
0Q
#1000
0!
0^
0_
1Q
#1050
1!
1^
1_
0Q
#1100
0!
0^
0_
1Q
#1150
1!
1^
1_
0Q
#1200
0!
0^
0_
1Q
#1250
1!
1^
1_
0Q
#1300
0!
0^
0_
1Q
#1350
1!
1^
1_
0Q
#1400
0!
0^
0_
1Q
#1450
1!
1^
1_
0Q
#1500
0!
0^
0_
1Q
#1550
1!
1^
1_
0Q
#1600
0!
0^
0_
1Q
#1650
1!
1^
1_
0Q
#1700
0!
0^
0_
1Q
#1750
1!
1^
1_
0Q
#1800
0!
0^
0_
1Q
#1850
1!
1^
1_
0Q
#1900
0!
0^
0_
1Q
#1950
1!
1^
1_
0Q
#2000
0!
0^
0_
1Q
#2050
1!
1^
1_
0Q
#2100
0!
0^
0_
1Q
#2150
1!
1^
1_
0Q
#2200
0!
0^
0_
1Q
#2250
1!
1^
1_
0Q
#2300
0!
0^
0_
1Q
#2350
1!
1^
1_
0Q
#2400
0!
0^
0_
1Q
#2450
1!
1^
1_
0Q
#2500
0!
0^
0_
1Q
#2550
1!
1^
1_
0Q
#2600
0!
0^
0_
1Q
#2650
1!
1^
1_
0Q
#2700
0!
0^
0_
1Q
#2750
1!
1^
1_
0Q
#2800
0!
0^
0_
1Q
#2850
1!
1^
1_
0Q
#2900
0!
0^
0_
1Q
#2950
1!
1^
1_
0Q
#3000
0!
0^
0_
1Q
#3050
1!
1^
1_
0Q
#3100
0!
0^
0_
1Q
#3150
1!
1^
1_
0Q
#3200
0!
0^
0_
1Q
#3250
1!
1^
1_
0Q
#3300
0!
0^
0_
1Q
#3350
1!
1^
1_
0Q
#3400
0!
0^
0_
1Q
#3450
1!
1^
1_
0Q
#3500
0!
0^
0_
1Q
#3550
1!
1^
1_
0Q
#3600
0!
0^
0_
1Q
#3650
1!
1^
1_
0Q
#3700
0!
0^
0_
1Q
#3750
1!
1^
1_
0Q
#3800
0!
0^
0_
1Q
#3850
1!
1^
1_
0Q
#3900
0!
0^
0_
1Q
#3950
1!
1^
1_
0Q
#4000
0!
0^
0_
1Q
#4050
1!
1^
1_
0Q
#4100
0!
0^
0_
1Q
#4150
1!
1^
1_
0Q
#4200
0!
0^
0_
1Q
#4250
1!
1^
1_
0Q
#4300
0!
0^
0_
1Q
#4350
1!
1^
1_
0Q
#4400
0!
0^
0_
1Q
#4450
1!
1^
1_
0Q
#4500
0!
0^
0_
1Q
#4550
1!
1^
1_
0Q
#4600
0!
0^
0_
1Q
#4650
1!
1^
1_
0Q
#4700
0!
0^
0_
1Q
#4750
1!
1^
1_
0Q
#4800
0!
0^
0_
1Q
#4850
1!
1^
1_
0Q
#4900
0!
0^
0_
1Q
#4950
1!
1^
1_
0Q
#5000
0!
0^
0_
1Q
#5050
1!
1^
1_
0Q
#5100
0!
0^
0_
1Q
#5150
1!
1^
1_
0Q
#5200
0!
0^
0_
1Q
#5250
1!
1^
1_
0Q
#5300
0!
0^
0_
1Q
#5350
1!
1^
1_
0Q
#5400
0!
0^
0_
1Q
#5450
1!
1^
1_
0Q
#5500
0!
0^
0_
1Q
#5550
1!
1^
1_
0Q
#5600
0!
0^
0_
1Q
#5650
1!
1^
1_
0Q
#5700
0!
0^
0_
1Q
#5750
1!
1^
1_
0Q
#5800
0!
0^
0_
1Q
#5850
1!
1^
1_
0Q
#5900
0!
0^
0_
1Q
#5950
1!
1^
1_
0Q
#6000
0!
0^
0_
1Q
#6050
1!
1^
1_
0Q
#6100
0!
0^
0_
1Q
#6150
1!
1^
1_
0Q
#6200
0!
0^
0_
1Q
#6250
1!
1^
1_
0Q
#6300
0!
0^
0_
1Q
#6350
1!
1^
1_
0Q
#6400
0!
0^
0_
1Q
#6450
1!
1^
1_
0Q
#6500
0!
0^
0_
1Q
#6550
1!
1^
1_
0Q
#6600
0!
0^
0_
1Q
#6650
1!
1^
1_
0Q
#6700
0!
0^
0_
1Q
#6750
1!
1^
1_
0Q
#6800
0!
0^
0_
1Q
#6850
1!
1^
1_
0Q
#6900
0!
0^
0_
1Q
#6950
1!
1^
1_
0Q
#7000
0!
0^
0_
1Q
#7050
1!
1^
1_
0Q
#7100
0!
0^
0_
1Q
#7150
1!
1^
1_
0Q
#7200
0!
0^
0_
1Q
#7250
1!
1^
1_
0Q
#7300
0!
0^
0_
1Q
#7350
1!
1^
1_
0Q
#7400
0!
0^
0_
1Q
#7450
1!
1^
1_
0Q
#7500
0!
0^
0_
1Q
#7550
1!
1^
1_
0Q
#7600
0!
0^
0_
1Q
#7650
1!
1^
1_
0Q
#7700
0!
0^
0_
1Q
#7750
1!
1^
1_
0Q
#7800
0!
0^
0_
1Q
#7850
1!
1^
1_
0Q
#7900
0!
0^
0_
1Q
#7950
1!
1^
1_
0Q
#8000
0!
0^
0_
1Q
#8050
1!
1^
1_
0Q
#8100
0!
0^
0_
1Q
#8150
1!
1^
1_
0Q
#8200
0!
0^
0_
1Q
#8250
1!
1^
1_
0Q
#8300
0!
0^
0_
1Q
#8350
1!
1^
1_
0Q
#8400
0!
0^
0_
1Q
#8450
1!
1^
1_
0Q
#8500
0!
0^
0_
1Q
#8550
1!
1^
1_
0Q
#8600
0!
0^
0_
1Q
#8650
1!
1^
1_
0Q
#8700
0!
0^
0_
1Q
#8750
1!
1^
1_
0Q
#8800
0!
0^
0_
1Q
#8850
1!
1^
1_
0Q
#8900
0!
0^
0_
1Q
#8950
1!
1^
1_
0Q
#9000
0!
0^
0_
1Q
#9050
1!
1^
1_
0Q
#9100
0!
0^
0_
1Q
#9150
1!
1^
1_
0Q
#9200
0!
0^
0_
1Q
#9250
1!
1^
1_
0Q
#9300
0!
0^
0_
1Q
#9350
1!
1^
1_
0Q
#9400
0!
0^
0_
1Q
#9450
1!
1^
1_
0Q
#9500
0!
0^
0_
1Q
#9550
1!
1^
1_
0Q
#9600
0!
0^
0_
1Q
#9650
1!
1^
1_
0Q
#9700
0!
0^
0_
1Q
#9750
1!
1^
1_
0Q
#9800
0!
0^
0_
1Q
#9850
1!
1^
1_
0Q
#9900
0!
0^
0_
1Q
#9950
1!
1^
1_
0Q
#10000
0!
0^
0_
1Q
#10050
1!
1^
1_
0Q
#10100
0!
0^
0_
1Q
#10150
1!
1^
1_
0Q
#10200
0!
0^
0_
1Q
#10250
1!
1^
1_
0Q
#10300
0!
0^
0_
1Q
#10350
1!
1^
1_
0Q
#10400
0!
0^
0_
1Q
#10450
1!
1^
1_
0Q
#10500
0!
0^
0_
1Q
#10550
1!
1^
1_
0Q
#10600
0!
0^
0_
1Q
#10650
1!
1^
1_
0Q
#10700
0!
0^
0_
1Q
#10750
1!
1^
1_
0Q
#10800
0!
0^
0_
1Q
#10850
1!
1^
1_
0Q
#10900
0!
0^
0_
1Q
#10950
1!
1^
1_
0Q
#11000
0!
0^
0_
1Q
#11050
1!
1^
1_
0Q
#11100
0!
0^
0_
1Q
#11150
1!
1^
1_
0Q
#11200
0!
0^
0_
1Q
#11250
1!
1^
1_
0Q
#11300
0!
0^
0_
1Q
#11350
1!
1^
1_
0Q
#11400
0!
0^
0_
1Q
#11450
1!
1^
1_
0Q
#11500
0!
0^
0_
1Q
#11550
1!
1^
1_
0Q
#11600
0!
0^
0_
1Q
#11650
1!
1^
1_
0Q
#11700
0!
0^
0_
1Q
#11750
1!
1^
1_
0Q
#11800
0!
0^
0_
1Q
#11850
1!
1^
1_
0Q
#11900
0!
0^
0_
1Q
#11950
1!
1^
1_
0Q
#12000
0!
0^
0_
1Q
#12050
1!
1^
1_
0Q
#12100
0!
0^
0_
1Q
#12150
1!
1^
1_
0Q
#12200
0!
0^
0_
1Q
#12250
1!
1^
1_
0Q
#12300
0!
0^
0_
1Q
#12350
1!
1^
1_
0Q
#12400
0!
0^
0_
1Q
#12450
1!
1^
1_
0Q
#12500
0!
0^
0_
1Q
#12550
1!
1^
1_
0Q
#12600
0!
0^
0_
1Q
#12650
1!
1^
1_
0Q
#12700
0!
0^
0_
1Q
#12750
1!
1^
1_
0Q
#12800
0!
0^
0_
1Q
#12850
1!
1^
1_
0Q
#12900
0!
0^
0_
1Q
#12950
1!
1^
1_
0Q
#13000
0!
0^
0_
1Q
#13050
1!
1^
1_
0Q
#13100
0!
0^
0_
1Q
#13150
1!
1^
1_
0Q
#13200
0!
0^
0_
1Q
#13250
1!
1^
1_
0Q
#13300
0!
0^
0_
1Q
#13350
1!
1^
1_
0Q
#13400
0!
0^
0_
1Q
#13450
1!
1^
1_
0Q
#13500
0!
0^
0_
1Q
#13550
1!
1^
1_
0Q
#13600
0!
0^
0_
1Q
#13650
1!
1^
1_
0Q
#13700
0!
0^
0_
1Q
#13750
1!
1^
1_
0Q
#13800
0!
0^
0_
1Q
#13850
1!
1^
1_
0Q
#13900
0!
0^
0_
1Q
#13950
1!
1^
1_
0Q
#14000
0!
0^
0_
1Q
#14050
1!
1^
1_
0Q
#14100
0!
0^
0_
1Q
#14150
1!
1^
1_
0Q
#14200
0!
0^
0_
1Q
#14250
1!
1^
1_
0Q
#14300
0!
0^
0_
1Q
#14350
1!
1^
1_
0Q
#14400
0!
0^
0_
1Q
#14450
1!
1^
1_
0Q
#14500
0!
0^
0_
1Q
#14550
1!
1^
1_
0Q
#14600
0!
0^
0_
1Q
#14650
1!
1^
1_
0Q
#14700
0!
0^
0_
1Q
#14750
1!
1^
1_
0Q
#14800
0!
0^
0_
1Q
#14850
1!
1^
1_
0Q
#14900
0!
0^
0_
1Q
#14950
1!
1^
1_
0Q
#15000
0!
0^
0_
1Q
#15050
1!
1^
1_
0Q
#15100
0!
0^
0_
1Q
#15150
1!
1^
1_
0Q
#15200
0!
0^
0_
1Q
#15250
1!
1^
1_
0Q
#15300
0!
0^
0_
1Q
#15350
1!
1^
1_
0Q
#15400
0!
0^
0_
1Q
#15450
1!
1^
1_
0Q
#15500
0!
0^
0_
1Q
#15550
1!
1^
1_
0Q
#15600
0!
0^
0_
1Q
#15650
1!
1^
1_
0Q
#15700
0!
0^
0_
1Q
#15750
1!
1^
1_
0Q
#15800
0!
0^
0_
1Q
#15850
1!
1^
1_
0Q
#15900
0!
0^
0_
1Q
#15950
1!
1^
1_
0Q
#16000
0!
0^
0_
1Q
#16050
1!
1^
1_
0Q
#16100
0!
0^
0_
1Q
#16150
1!
1^
1_
0Q
#16200
0!
0^
0_
1Q
#16250
1!
1^
1_
0Q
#16300
0!
0^
0_
1Q
#16350
1!
1^
1_
0Q
#16400
0!
0^
0_
1Q
#16450
1!
1^
1_
0Q
#16500
0!
0^
0_
1Q
#16550
1!
1^
1_
0Q
#16600
0!
0^
0_
1Q
#16650
1!
1^
1_
0Q
#16700
0!
0^
0_
1Q
#16750
1!
1^
1_
0Q
#16800
0!
0^
0_
1Q
#16850
1!
1^
1_
0Q
#16900
0!
0^
0_
1Q
#16950
1!
1^
1_
0Q
#17000
0!
0^
0_
1Q
#17050
1!
1^
1_
0Q
#17100
0!
0^
0_
1Q
#17150
1!
1^
1_
0Q
#17200
0!
0^
0_
1Q
#17250
1!
1^
1_
0Q
#17300
0!
0^
0_
1Q
#17350
1!
1^
1_
0Q
#17400
0!
0^
0_
1Q
#17450
1!
1^
1_
0Q
#17500
0!
0^
0_
1Q
#17550
1!
1^
1_
0Q
#17600
0!
0^
0_
1Q
#17650
1!
1^
1_
0Q
#17700
0!
0^
0_
1Q
#17750
1!
1^
1_
0Q
#17800
0!
0^
0_
1Q
#17850
1!
1^
1_
0Q
#17900
0!
0^
0_
1Q
#17950
1!
1^
1_
0Q
#18000
0!
0^
0_
1Q
#18050
1!
1^
1_
0Q
#18100
0!
0^
0_
1Q
#18150
1!
1^
1_
0Q
#18200
0!
0^
0_
1Q
#18250
1!
1^
1_
0Q
#18300
0!
0^
0_
1Q
#18350
1!
1^
1_
0Q
#18400
0!
0^
0_
1Q
#18450
1!
1^
1_
0Q
#18500
0!
0^
0_
1Q
#18550
1!
1^
1_
0Q
#18600
0!
0^
0_
1Q
#18650
1!
1^
1_
0Q
#18700
0!
0^
0_
1Q
#18750
1!
1^
1_
0Q
#18800
0!
0^
0_
1Q
#18850
1!
1^
1_
0Q
#18900
0!
0^
0_
1Q
#18950
1!
1^
1_
0Q
#19000
0!
0^
0_
1Q
#19050
1!
1^
1_
0Q
#19100
0!
0^
0_
1Q
#19150
1!
1^
1_
0Q
#19200
0!
0^
0_
1Q
#19250
1!
1^
1_
0Q
#19300
0!
0^
0_
1Q
#19350
1!
1^
1_
0Q
#19400
0!
0^
0_
1Q
#19450
1!
1^
1_
0Q
#19500
0!
0^
0_
1Q
#19550
1!
1^
1_
0Q
#19600
0!
0^
0_
1Q
#19650
1!
1^
1_
0Q
#19700
0!
0^
0_
1Q
#19750
1!
1^
1_
0Q
#19800
0!
0^
0_
1Q
#19850
1!
1^
1_
0Q
#19900
0!
0^
0_
1Q
#19950
1!
1^
1_
0Q
#20000
0!
0^
0_
1Q
#20050
1!
1^
1_
0Q
#20100
0!
0^
0_
1Q
#20150
1!
1^
1_
0Q
#20200
0!
0^
0_
1Q
#20250
1!
1^
1_
0Q
#20300
0!
0^
0_
1Q
#20350
1!
1^
1_
0Q
#20400
0!
0^
0_
1Q
#20450
1!
1^
1_
0Q
#20500
0!
0^
0_
1Q
#20550
1!
1^
1_
0Q
#20600
0!
0^
0_
1Q
#20650
1!
1^
1_
0Q
#20700
0!
0^
0_
1Q
#20750
1!
1^
1_
0Q
#20800
0!
0^
0_
1Q
#20850
1!
1^
1_
0Q
#20900
0!
0^
0_
1Q
#20950
1!
1^
1_
0Q
#21000
0!
0^
0_
1Q
#21050
1!
1^
1_
0Q
#21100
0!
0^
0_
1Q
#21150
1!
1^
1_
0Q
#21200
0!
0^
0_
1Q
#21250
1!
1^
1_
0Q
#21300
0!
0^
0_
1Q
#21350
1!
1^
1_
0Q
#21400
0!
0^
0_
1Q
#21450
1!
1^
1_
0Q
#21500
0!
0^
0_
1Q
#21550
1!
1^
1_
0Q
#21600
0!
0^
0_
1Q
#21650
1!
1^
1_
0Q
#21700
0!
0^
0_
1Q
#21750
1!
1^
1_
0Q
#21800
0!
0^
0_
1Q
#21850
1!
1^
1_
0Q
#21900
0!
0^
0_
1Q
#21950
1!
1^
1_
0Q
#22000
0!
0^
0_
1Q
#22050
1!
1^
1_
0Q
#22100
0!
0^
0_
1Q
#22150
1!
1^
1_
0Q
#22200
0!
0^
0_
1Q
#22250
1!
1^
1_
0Q
#22300
0!
0^
0_
1Q
#22350
1!
1^
1_
0Q
#22400
0!
0^
0_
1Q
#22450
1!
1^
1_
0Q
#22500
0!
0^
0_
1Q
#22550
1!
1^
1_
0Q
#22600
0!
0^
0_
1Q
#22650
1!
1^
1_
0Q
#22700
0!
0^
0_
1Q
#22750
1!
1^
1_
0Q
#22800
0!
0^
0_
1Q
#22850
1!
1^
1_
0Q
#22900
0!
0^
0_
1Q
#22950
1!
1^
1_
0Q
#23000
0!
0^
0_
1Q
#23050
1!
1^
1_
0Q
#23100
0!
0^
0_
1Q
#23150
1!
1^
1_
0Q
#23200
0!
0^
0_
1Q
#23250
1!
1^
1_
0Q
#23300
0!
0^
0_
1Q
#23350
1!
1^
1_
0Q
#23400
0!
0^
0_
1Q
#23450
1!
1^
1_
0Q
#23500
0!
0^
0_
1Q
#23550
1!
1^
1_
0Q
#23600
0!
0^
0_
1Q
#23650
1!
1^
1_
0Q
#23700
0!
0^
0_
1Q
#23750
1!
1^
1_
0Q
#23800
0!
0^
0_
1Q
#23850
1!
1^
1_
0Q
#23900
0!
0^
0_
1Q
#23950
1!
1^
1_
0Q
#24000
0!
0^
0_
1Q
#24050
1!
1^
1_
0Q
#24100
0!
0^
0_
1Q
#24150
1!
1^
1_
0Q
#24200
0!
0^
0_
1Q
#24250
1!
1^
1_
0Q
#24300
0!
0^
0_
1Q
#24350
1!
1^
1_
0Q
#24400
0!
0^
0_
1Q
#24450
1!
1^
1_
0Q
#24500
0!
0^
0_
1Q
#24550
1!
1^
1_
0Q
#24600
0!
0^
0_
1Q
#24650
1!
1^
1_
0Q
#24700
0!
0^
0_
1Q
#24750
1!
1^
1_
0Q
#24800
0!
0^
0_
1Q
#24850
1!
1^
1_
0Q
#24900
0!
0^
0_
1Q
#24950
1!
1^
1_
0Q
#25000
0!
0^
0_
1Q
#25050
1!
1^
1_
0Q
#25100
0!
0^
0_
1Q
#25150
1!
1^
1_
0Q
#25200
0!
0^
0_
1Q
#25250
1!
1^
1_
0Q
#25300
0!
0^
0_
1Q
#25350
1!
1^
1_
0Q
#25400
0!
0^
0_
1Q
#25450
1!
1^
1_
0Q
#25500
0!
0^
0_
1Q
#25550
1!
1^
1_
0Q
#25600
0!
0^
0_
1Q
#25650
1!
1^
1_
0Q
#25700
0!
0^
0_
1Q
#25750
1!
1^
1_
0Q
#25800
0!
0^
0_
1Q
#25850
1!
1^
1_
0Q
#25900
0!
0^
0_
1Q
#25950
1!
1^
1_
0Q
#26000
0!
0^
0_
1Q
#26050
1!
1^
1_
0Q
#26100
0!
0^
0_
1Q
#26150
1!
1^
1_
0Q
